<?xml version="1.0" encoding="UTF-8"?>
<!DOCTYPE mapper PUBLIC "-//mybatis.org//DTD Mapper 3.0//EN" "http://mybatis.org/dtd/mybatis-3-mapper.dtd">
<mapper namespace="com.practice.lms.dao.ADao">

    <select id="selectByPrimaryKey"  resultType="com.practice.lms.bean.A">
        select * from a where id=#{id}
    </select>

</mapper>
